Error, "/tmp/cs131_testrunner_lb3qMF/file.rc": 
  Return required in function, none found.
Error, "/tmp/cs131_testrunner_lb3qMF/file.rc": 
  Return required in function, none found.
Error, "/tmp/cs131_testrunner_lb3qMF/file.rc": 
  Value of type float not assignable to variable of type int.
Error, "/tmp/cs131_testrunner_lb3qMF/file.rc": 
  Argument of type REC2 not equivalent to reference parameter a, of type REC1.
Error, "/tmp/cs131_testrunner_lb3qMF/file.rc": 
  Argument of type int[5] not equivalent to reference parameter a, of type float[5].
Error, "/tmp/cs131_testrunner_lb3qMF/file.rc": 
  Left-hand operand is not assignable (not a modifiable L-value).
Error, "/tmp/cs131_testrunner_lb3qMF/file.rc": 
  Value of type REC2 not assignable to variable of type REC1.
Error, "/tmp/cs131_testrunner_lb3qMF/file.rc": 
  Value of type int* not assignable to variable of type float*.
Error, "/tmp/cs131_testrunner_lb3qMF/file.rc": 
  Value of type REC2* not assignable to variable of type REC1*.
Compile: failure.
