Error, "/tmp/cs131_testrunner_Hc3qMF/file.rc": 
  Value of type float not assignable to variable of type int.
Error, "/tmp/cs131_testrunner_Hc3qMF/file.rc": 
  Value of type float not assignable to variable of type int.
Error, "/tmp/cs131_testrunner_Hc3qMF/file.rc": 
  Value of type bool not assignable to variable of type int.
Error, "/tmp/cs131_testrunner_Hc3qMF/file.rc": 
  Value of type int not assignable to variable of type bool.
Error, "/tmp/cs131_testrunner_Hc3qMF/file.rc": 
  Value of type bool not assignable to variable of type int.
Error, "/tmp/cs131_testrunner_Hc3qMF/file.rc": 
  Value of type bool not assignable to variable of type int.
Error, "/tmp/cs131_testrunner_Hc3qMF/file.rc": 
  Value of type bool not assignable to variable of type int.
Error, "/tmp/cs131_testrunner_Hc3qMF/file.rc": 
  Value of type bool not assignable to variable of type int.
Error, "/tmp/cs131_testrunner_Hc3qMF/file.rc": 
  Value of type bool not assignable to variable of type int.
Error, "/tmp/cs131_testrunner_Hc3qMF/file.rc": 
  Value of type bool not assignable to variable of type int.
Error, "/tmp/cs131_testrunner_Hc3qMF/file.rc": 
  Value of type bool not assignable to variable of type int.
Error, "/tmp/cs131_testrunner_Hc3qMF/file.rc": 
  Value of type bool not assignable to variable of type int.
Error, "/tmp/cs131_testrunner_Hc3qMF/file.rc": 
  Value of type bool not assignable to variable of type int.
Error, "/tmp/cs131_testrunner_Hc3qMF/file.rc": 
  Value of type bool not assignable to variable of type int.
Error, "/tmp/cs131_testrunner_Hc3qMF/file.rc": 
  Value of type bool not assignable to variable of type int.
Error, "/tmp/cs131_testrunner_Hc3qMF/file.rc": 
  Value of type int not assignable to variable of type bool.
Error, "/tmp/cs131_testrunner_Hc3qMF/file.rc": 
  Value of type int not assignable to variable of type bool.
Error, "/tmp/cs131_testrunner_Hc3qMF/file.rc": 
  Value of type int not assignable to variable of type bool.
Compile: failure.
