Error, "/tmp/cs131_testrunner_01HqMF/file.rc": 
  Incompatible type bool to binary operator >, numeric expected.
Error, "/tmp/cs131_testrunner_01HqMF/file.rc": 
  Incompatible type bool to binary operator >, numeric expected.
Error, "/tmp/cs131_testrunner_01HqMF/file.rc": 
  Incompatible type bool to binary operator >, numeric expected.
Error, "/tmp/cs131_testrunner_01HqMF/file.rc": 
  Incompatible type bool to binary operator >, numeric expected.
Error, "/tmp/cs131_testrunner_01HqMF/file.rc": 
  Incompatible type bool to binary operator <, numeric expected.
Error, "/tmp/cs131_testrunner_01HqMF/file.rc": 
  Incompatible type bool to binary operator <, numeric expected.
Error, "/tmp/cs131_testrunner_01HqMF/file.rc": 
  Incompatible type bool to binary operator <, numeric expected.
Error, "/tmp/cs131_testrunner_01HqMF/file.rc": 
  Incompatible type bool to binary operator <, numeric expected.
Error, "/tmp/cs131_testrunner_01HqMF/file.rc": 
  Incompatible type bool to binary operator >=, numeric expected.
Error, "/tmp/cs131_testrunner_01HqMF/file.rc": 
  Incompatible type bool to binary operator >=, numeric expected.
Error, "/tmp/cs131_testrunner_01HqMF/file.rc": 
  Incompatible type bool to binary operator >=, numeric expected.
Error, "/tmp/cs131_testrunner_01HqMF/file.rc": 
  Incompatible type bool to binary operator >=, numeric expected.
Error, "/tmp/cs131_testrunner_01HqMF/file.rc": 
  Incompatible type bool to binary operator <=, numeric expected.
Error, "/tmp/cs131_testrunner_01HqMF/file.rc": 
  Incompatible type bool to binary operator <=, numeric expected.
Error, "/tmp/cs131_testrunner_01HqMF/file.rc": 
  Incompatible type bool to binary operator <=, numeric expected.
Error, "/tmp/cs131_testrunner_01HqMF/file.rc": 
  Incompatible type bool to binary operator <=, numeric expected.
Compile: failure.
