Error, "/tmp/cs131_testrunner_I5HqMF/file.rc": 
  Incompatible type bool to operator ++, equivalent to int, float, or pointer expected.
Error, "/tmp/cs131_testrunner_I5HqMF/file.rc": 
  Incompatible type bool to operator ++, equivalent to int, float, or pointer expected.
Error, "/tmp/cs131_testrunner_I5HqMF/file.rc": 
  Incompatible type bool to operator --, equivalent to int, float, or pointer expected.
Error, "/tmp/cs131_testrunner_I5HqMF/file.rc": 
  Incompatible type bool to operator --, equivalent to int, float, or pointer expected.
Error, "/tmp/cs131_testrunner_I5HqMF/file.rc": 
  Operand to ++ is not a modifiable L-value.
Compile: failure.
