Error, "/tmp/cs131_testrunner_65HqMF/file.rc": 
  Value of type int not assignable to variable of type bool.
Error, "/tmp/cs131_testrunner_65HqMF/file.rc": 
  Operand to ++ is not a modifiable L-value.
Error, "/tmp/cs131_testrunner_65HqMF/file.rc": 
  Left-hand operand is not assignable (not a modifiable L-value).
Error, "/tmp/cs131_testrunner_65HqMF/file.rc": 
  Operand to ++ is not a modifiable L-value.
Error, "/tmp/cs131_testrunner_65HqMF/file.rc": 
  Operand to ++ is not a modifiable L-value.
Compile: failure.
