Error, "/tmp/cs131_testrunner_H6HqMF/file.rc": 
  bool required for conditional test, float found.
Error, "/tmp/cs131_testrunner_H6HqMF/file.rc": 
  bool required for conditional test, float found.
Error, "/tmp/cs131_testrunner_H6HqMF/file.rc": 
  bool required for conditional test, float found.
Error, "/tmp/cs131_testrunner_H6HqMF/file.rc": 
  bool required for conditional test, float found.
Compile: failure.
