Error, "/tmp/cs131_testrunner_96HqMF/file.rc": 
  Number of arguments (1) differs from number of parameters (0).
Error, "/tmp/cs131_testrunner_96HqMF/file.rc": 
  Argument of type float not assignable to value parameter x, of type int.
Error, "/tmp/cs131_testrunner_96HqMF/file.rc": 
  Argument of type bool not assignable to value parameter y, of type int.
Error, "/tmp/cs131_testrunner_96HqMF/file.rc": 
  Argument of type bool not assignable to value parameter x, of type int.
Error, "/tmp/cs131_testrunner_96HqMF/file.rc": 
  Argument of type float not assignable to value parameter y, of type int.
Compile: failure.
