Error, "/tmp/cs131_testrunner_d7HqMF/file.rc": 
  Incompatible type bool to binary operator +, numeric expected.
Error, "/tmp/cs131_testrunner_d7HqMF/file.rc": 
  Value of type void not assignable to variable of type int.
Compile: failure.
