Error, "/tmp/cs131_testrunner_b8HqMF/file.rc": 
  Type of return expression (bool), not assignment compatible with function's return type (int).
Error, "/tmp/cs131_testrunner_b8HqMF/file.rc": 
  Type of return expression (float*) is not equivalent to the function's return type (int).
Error, "/tmp/cs131_testrunner_b8HqMF/file.rc": 
  Return expression is not a modifiable L-value for function that returns by reference.
Compile: failure.
