Error, "/tmp/cs131_testrunner_A8HqMF/file.rc": 
  Return required in function, none found.
Error, "/tmp/cs131_testrunner_A8HqMF/file.rc": 
  Return in function requires a result expression, none found.
Error, "/tmp/cs131_testrunner_A8HqMF/file.rc": 
  Return required in function, none found.
Error, "/tmp/cs131_testrunner_A8HqMF/file.rc": 
  Return required in function, none found.
Error, "/tmp/cs131_testrunner_A8HqMF/file.rc": 
  Return required in function, none found.
Error, "/tmp/cs131_testrunner_A8HqMF/file.rc": 
  Return required in function, none found.
Compile: failure.
