Error, "/tmp/cs131_testrunner_L8HqMF/file.rc": 
  Type of return expression (bool), not assignment compatible with function's return type (float).
Error, "/tmp/cs131_testrunner_L8HqMF/file.rc": 
  Return expression is not a modifiable L-value for function that returns by reference.
Error, "/tmp/cs131_testrunner_L8HqMF/file.rc": 
  Type of return expression (int) is not equivalent to the function's return type (float).
Error, "/tmp/cs131_testrunner_L8HqMF/file.rc": 
  Type of return expression (int) is not equivalent to the function's return type (float).
Error, "/tmp/cs131_testrunner_L8HqMF/file.rc": 
  Return required in function, none found.
Error, "/tmp/cs131_testrunner_L8HqMF/file.rc": 
  Return in function requires a result expression, none found.
Error, "/tmp/cs131_testrunner_L8HqMF/file.rc": 
  Return required in function, none found.
Error, "/tmp/cs131_testrunner_L8HqMF/file.rc": 
  Return in function requires a result expression, none found.
Compile: failure.
