Error, "/tmp/cs131_testrunner_98HqMF/file.rc": 
  Exit expression (type float) is not assignable to int.
Error, "/tmp/cs131_testrunner_98HqMF/file.rc": 
  Exit expression (type bool) is not assignable to int.
Compile: failure.
