Error, "/tmp/cs131_testrunner__8HqMF/file.rc": 
  Arithmetic exception occurred during constant folding.
Error, "/tmp/cs131_testrunner__8HqMF/file.rc": 
  Arithmetic exception occurred during constant folding.
Compile: failure.
