Error, "/tmp/cs131_testrunner_d_HqMF/file.rc": 
  Index value of 5 is outside legal range [0,5).
Error, "/tmp/cs131_testrunner_d_HqMF/file.rc": 
  redeclared identifier 'e'.
Error, "/tmp/cs131_testrunner_d_HqMF/file.rc": 
  Index expression type (bool) in array declaration not equivalent to int.
Error, "/tmp/cs131_testrunner_d_HqMF/file.rc": 
  redeclared identifier 'e'.
Error, "/tmp/cs131_testrunner_d_HqMF/file.rc": 
  Index expression type (bool) in array declaration not equivalent to int.
Error, "/tmp/cs131_testrunner_d_HqMF/file.rc": 
  Index expression type (bool) in array declaration not equivalent to int.
Error, "/tmp/cs131_testrunner_d_HqMF/file.rc": 
  Index expression type (bool) in array declaration not equivalent to int.
Error, "/tmp/cs131_testrunner_d_HqMF/file.rc": 
  Index expression type (float) in array declaration not equivalent to int.
Compile: failure.
