Error, "/tmp/cs131_testrunner_j_HqMF/file.rc": 
  Index value of 5 is outside legal range [0,5).
Error, "/tmp/cs131_testrunner_j_HqMF/file.rc": 
  Index value of 5 is outside legal range [0,5).
Error, "/tmp/cs131_testrunner_j_HqMF/file.rc": 
  Index value of 5 is outside legal range [0,5).
Error, "/tmp/cs131_testrunner_j_HqMF/file.rc": 
  Incompatible type int*[5][10] to unary dereference operator *, pointer expected.
Error, "/tmp/cs131_testrunner_j_HqMF/file.rc": 
  Incompatible type int*[5][10] to unary dereference operator *, pointer expected.
Error, "/tmp/cs131_testrunner_j_HqMF/file.rc": 
  Incompatible type int*[5][10] to unary dereference operator *, pointer expected.
Error, "/tmp/cs131_testrunner_j_HqMF/file.rc": 
  Incompatible type int*[5][10] to unary dereference operator *, pointer expected.
Error, "/tmp/cs131_testrunner_j_HqMF/file.rc": 
  Incompatible type int*[5][10] to unary dereference operator *, pointer expected.
Error, "/tmp/cs131_testrunner_j_HqMF/file.rc": 
  Argument of type int not equivalent to reference parameter array, of type int[5].
Error, "/tmp/cs131_testrunner_j_HqMF/file.rc": 
  Argument of type int not equivalent to reference parameter array, of type int[5].
Error, "/tmp/cs131_testrunner_j_HqMF/file.rc": 
  Argument of type float[3] not equivalent to reference parameter array, of type int[5].
Error, "/tmp/cs131_testrunner_j_HqMF/file.rc": 
  Left-hand operand is not assignable (not a modifiable L-value).
Compile: failure.
