Error, "/tmp/cs131_testrunner_A_HqMF/file.rc": 
  Type of expression referenced by array subscript (int) is not of array or pointer type.
Error, "/tmp/cs131_testrunner_A_HqMF/file.rc": 
  Type of index expression in array reference (float) not equivalent to int.
Error, "/tmp/cs131_testrunner_A_HqMF/file.rc": 
  Index value of 55 is outside legal range [0,10).
Error, "/tmp/cs131_testrunner_A_HqMF/file.rc": 
  Index value of -99 is outside legal range [0,10).
Error, "/tmp/cs131_testrunner_A_HqMF/file.rc": 
  Index value of 13 is outside legal range [0,10).
Error, "/tmp/cs131_testrunner_A_HqMF/file.rc": 
  Index value of 12 is outside legal range [0,10).
Error, "/tmp/cs131_testrunner_A_HqMF/file.rc": 
  Index value of 17 is outside legal range [0,10).
Error, "/tmp/cs131_testrunner_A_HqMF/file.rc": 
  Index value of -9 is outside legal range [0,10).
Error, "/tmp/cs131_testrunner_A_HqMF/file.rc": 
  Index value of 7 is outside legal range [0,2).
Error, "/tmp/cs131_testrunner_A_HqMF/file.rc": 
  Index value of -9 is outside legal range [0,10).
Error, "/tmp/cs131_testrunner_A_HqMF/file.rc": 
  Index value of 14 is outside legal range [0,2).
Error, "/tmp/cs131_testrunner_A_HqMF/file.rc": 
  Index value of -12 is outside legal range [0,10).
Compile: failure.
