Error, "/tmp/cs131_testrunner_E_HqMF/file.rc": 
  Type of expression referenced by array subscript (int) is not of array or pointer type.
Error, "/tmp/cs131_testrunner_E_HqMF/file.rc": 
  Index value of 3599 is outside legal range [0,10).
Error, "/tmp/cs131_testrunner_E_HqMF/file.rc": 
  Index value of -1 is outside legal range [0,10).
Error, "/tmp/cs131_testrunner_E_HqMF/file.rc": 
  Index value of 10 is outside legal range [0,5).
Error, "/tmp/cs131_testrunner_E_HqMF/file.rc": 
  Index value of 3599 is outside legal range [0,5).
Error, "/tmp/cs131_testrunner_E_HqMF/file.rc": 
  Argument of type int[10] not assignable to value parameter intp, of type int*.
Compile: failure.
