Error, "/tmp/cs131_testrunner_0aIqMF/file.rc": 
  Field x declared second time in struct.
Error, "/tmp/cs131_testrunner_0aIqMF/file.rc": 
  Field x declared second time in struct.
Error, "/tmp/cs131_testrunner_0aIqMF/file.rc": 
  Field y declared second time in struct.
Error, "/tmp/cs131_testrunner_0aIqMF/file.rc": 
  Field w declared second time in struct.
Compile: failure.
