Error, "/tmp/cs131_testrunner_ebIqMF/file.rc": 
  Field x declared second time in struct.
Error, "/tmp/cs131_testrunner_ebIqMF/file.rc": 
  Field x declared second time in struct.
Error, "/tmp/cs131_testrunner_ebIqMF/file.rc": 
  Field y declared second time in struct.
Error, "/tmp/cs131_testrunner_ebIqMF/file.rc": 
  Field foo declared second time in struct.
Compile: failure.
