Error, "/tmp/cs131_testrunner_9bIqMF/file.rc": 
  Value of type int not assignable to variable of type bool.
Error, "/tmp/cs131_testrunner_9bIqMF/file.rc": 
  undeclared identifier 'x'.
Error, "/tmp/cs131_testrunner_9bIqMF/file.rc": 
  Value of type bool not assignable to variable of type int.
Error, "/tmp/cs131_testrunner_9bIqMF/file.rc": 
  Value of type int not assignable to variable of type bool.
Compile: failure.
