Error, "/tmp/cs131_testrunner_ncIqMF/file.rc": 
  Number of arguments (2) differs from number of parameters (0).
Error, "/tmp/cs131_testrunner_ncIqMF/file.rc": 
  Number of arguments (0) differs from number of parameters (1).
Error, "/tmp/cs131_testrunner_ncIqMF/file.rc": 
  Number of arguments (0) differs from number of parameters (1).
Error, "/tmp/cs131_testrunner_ncIqMF/file.rc": 
  Argument of type bool not assignable to value parameter x, of type float.
Error, "/tmp/cs131_testrunner_ncIqMF/file.rc": 
  Number of arguments (0) differs from number of parameters (1).
Error, "/tmp/cs131_testrunner_ncIqMF/file.rc": 
  Illegal call to overloaded function MYS_C.
Error, "/tmp/cs131_testrunner_ncIqMF/file.rc": 
  Illegal call to overloaded function MYS_C.
Error, "/tmp/cs131_testrunner_ncIqMF/file.rc": 
  Illegal call to overloaded function MYS_C.
Compile: failure.
