Error, "/tmp/cs131_testrunner_HcIqMF/file.rc": 
  Type of return expression (MYS***[20]), not assignment compatible with function's return type (MYS**).
Error, "/tmp/cs131_testrunner_HcIqMF/file.rc": 
  Incompatible type float to unary dereference operator *, pointer expected.
Error, "/tmp/cs131_testrunner_HcIqMF/file.rc": 
  Left-hand operand is not assignable (not a modifiable L-value).
Compile: failure.
