Error, "/tmp/cs131_testrunner_JcIqMF/file.rc": 
  Value of type bool not assignable to variable of type int.
Error, "/tmp/cs131_testrunner_JcIqMF/file.rc": 
  Value of type bool not assignable to variable of type int.
Compile: failure.
