Error, "/tmp/cs131_testrunner_VcIqMF/file.rc": 
  Value of type int not assignable to variable of type bool.
Error, "/tmp/cs131_testrunner_VcIqMF/file.rc": 
  Value of type int not assignable to variable of type bool.
Error, "/tmp/cs131_testrunner_VcIqMF/file.rc": 
  Value of type bool not assignable to variable of type int.
Error, "/tmp/cs131_testrunner_VcIqMF/file.rc": 
  Value of type YOURSTRUCT not assignable to variable of type MYSTRUCT.
Error, "/tmp/cs131_testrunner_VcIqMF/file.rc": 
  Value of type YOURSTRUCT* not assignable to variable of type MYSTRUCT*.
Compile: failure.
