Error, "/tmp/cs131_testrunner_RdIqMF/file.rc": 
  Value of type int* not assignable to variable of type STRUCT*.
Error, "/tmp/cs131_testrunner_RdIqMF/file.rc": 
  Value of type bool* not assignable to variable of type int*.
Error, "/tmp/cs131_testrunner_RdIqMF/file.rc": 
  Value of type int** not assignable to variable of type int*.
Error, "/tmp/cs131_testrunner_RdIqMF/file.rc": 
  Value of type int not assignable to variable of type int*.
Error, "/tmp/cs131_testrunner_RdIqMF/file.rc": 
  Value of type int* not assignable to variable of type int.
Compile: failure.
