Error, "/tmp/cs131_testrunner_XdIqMF/file.rc": 
  Incompatible types to operator ==:
    int*,
    int;
  both must be of equivalent pointer type.
Error, "/tmp/cs131_testrunner_XdIqMF/file.rc": 
  Incompatible types to operator ==:
    int,
    int*;
  both must be of equivalent pointer type.
Error, "/tmp/cs131_testrunner_XdIqMF/file.rc": 
  Incompatible types to operator ==:
    int*,
    float*;
  both must be of equivalent pointer type.
Error, "/tmp/cs131_testrunner_XdIqMF/file.rc": 
  Incompatible types to operator ==:
    STFU*,
    STFU;
  both must be of equivalent pointer type.
Compile: failure.
