Error, "/tmp/cs131_testrunner_6dIqMF/file.rc": 
  Incompatible types to operator !=:
    int,
    int*;
  both must be of equivalent pointer type.
Error, "/tmp/cs131_testrunner_6dIqMF/file.rc": 
  Incompatible types to operator ==:
    float*,
    int;
  both must be of equivalent pointer type.
Compile: failure.
