Error, "/tmp/cs131_testrunner_heIqMF/file.rc": 
  Left-hand operand is not assignable (not a modifiable L-value).
Error, "/tmp/cs131_testrunner_heIqMF/file.rc": 
  Left-hand operand is not assignable (not a modifiable L-value).
Error, "/tmp/cs131_testrunner_heIqMF/file.rc": 
  Return required in function, none found.
Compile: failure.
