Error, "/tmp/cs131_testrunner_veIqMF/file.rc": 
  Left-hand operand is not assignable (not a modifiable L-value).
Error, "/tmp/cs131_testrunner_veIqMF/file.rc": 
  Left-hand operand is not assignable (not a modifiable L-value).
Compile: failure.
