Error, "/tmp/cs131_testrunner_CeIqMF/file.rc": 
  Index value of 4 is outside legal range [0,1).
Error, "/tmp/cs131_testrunner_CeIqMF/file.rc": 
  Index value of 8 is outside legal range [0,1).
Error, "/tmp/cs131_testrunner_CeIqMF/file.rc": 
  Index value of 4 is outside legal range [0,1).
Error, "/tmp/cs131_testrunner_CeIqMF/file.rc": 
  Index value of 12 is outside legal range [0,1).
Error, "/tmp/cs131_testrunner_CeIqMF/file.rc": 
  Index value of 4 is outside legal range [0,1).
Error, "/tmp/cs131_testrunner_CeIqMF/file.rc": 
  Index value of 4 is outside legal range [0,1).
Error, "/tmp/cs131_testrunner_CeIqMF/file.rc": 
  Index value of 16 is outside legal range [0,1).
Error, "/tmp/cs131_testrunner_CeIqMF/file.rc": 
  Index value of 8 is outside legal range [0,1).
Compile: failure.
