Error, "/tmp/cs131_testrunner_QeIqMF/file.rc": 
  Index value of 4 is outside legal range [0,4).
Error, "/tmp/cs131_testrunner_QeIqMF/file.rc": 
  Index value of 4 is outside legal range [0,4).
Compile: failure.
