Error, "/tmp/cs131_testrunner_CfIqMF/file.rc": 
  Argument passed to reference parameter x (type int) is not a modifiable L-value.
Error, "/tmp/cs131_testrunner_CfIqMF/file.rc": 
  Non-addressable argument of type int to address-of operator.
Error, "/tmp/cs131_testrunner_CfIqMF/file.rc": 
  Invalid type cast. Type int[10] to type float is not supported.
Compile: failure.
