Error, "/tmp/cs131_testrunner_agIqMF/file.rc": 
  Incompatible type float to binary operator ^, equivalent to int expected.
Error, "/tmp/cs131_testrunner_agIqMF/file.rc": 
  Incompatible type bool to binary operator ^, equivalent to int expected.
Error, "/tmp/cs131_testrunner_agIqMF/file.rc": 
  Incompatible type bool to binary operator ^, equivalent to int expected.
Error, "/tmp/cs131_testrunner_agIqMF/file.rc": 
  Incompatible type bool to binary operator ^, equivalent to int expected.
Error, "/tmp/cs131_testrunner_agIqMF/file.rc": 
  Incompatible type bool to binary operator ^, equivalent to int expected.
Error, "/tmp/cs131_testrunner_agIqMF/file.rc": 
  Incompatible type float to binary operator ^, equivalent to int expected.
Error, "/tmp/cs131_testrunner_agIqMF/file.rc": 
  Incompatible type float to binary operator ^, equivalent to int expected.
Error, "/tmp/cs131_testrunner_agIqMF/file.rc": 
  Incompatible type float to binary operator ^, equivalent to int expected.
Compile: failure.
