Error, "/tmp/cs131_testrunner_EgIqMF/file.rc": 
  Incompatible type bool to binary operator +, numeric expected.
Error, "/tmp/cs131_testrunner_EgIqMF/file.rc": 
  Incompatible type bool to binary operator +, numeric expected.
Error, "/tmp/cs131_testrunner_EgIqMF/file.rc": 
  Incompatible type bool to operator ++, equivalent to int, float, or pointer expected.
Error, "/tmp/cs131_testrunner_EgIqMF/file.rc": 
  Incompatible type bool to binary operator +, numeric expected.
Error, "/tmp/cs131_testrunner_EgIqMF/file.rc": 
  Incompatible type bool to binary operator +, numeric expected.
Error, "/tmp/cs131_testrunner_EgIqMF/file.rc": 
  Incompatible type bool to operator --, equivalent to int, float, or pointer expected.
Compile: failure.
