Error, "/tmp/cs131_testrunner_shIqMF/file.rc": 
  bool required for conditional test, int found.
Error, "/tmp/cs131_testrunner_shIqMF/file.rc": 
  bool required for conditional test, int found.
Error, "/tmp/cs131_testrunner_shIqMF/file.rc": 
  bool required for conditional test, int found.
Error, "/tmp/cs131_testrunner_shIqMF/file.rc": 
  bool required for conditional test, float found.
Error, "/tmp/cs131_testrunner_shIqMF/file.rc": 
  bool required for conditional test, float found.
Error, "/tmp/cs131_testrunner_shIqMF/file.rc": 
  bool required for conditional test, float found.
Error, "/tmp/cs131_testrunner_shIqMF/file.rc": 
  bool required for conditional test, float found.
Error, "/tmp/cs131_testrunner_shIqMF/file.rc": 
  bool required for conditional test, float found.
Error, "/tmp/cs131_testrunner_shIqMF/file.rc": 
  bool required for conditional test, float found.
Error, "/tmp/cs131_testrunner_shIqMF/file.rc": 
  bool required for conditional test, float found.
Compile: failure.
