Error, "/tmp/cs131_testrunner_whIqMF/file.rc": 
  Operand to ++ is not a modifiable L-value.
Error, "/tmp/cs131_testrunner_whIqMF/file.rc": 
  Return required in function, none found.
Compile: failure.
