Error, "/tmp/cs131_testrunner_diIqMF/file.rc": 
  Type of index expression in array reference (float) not equivalent to int.
Error, "/tmp/cs131_testrunner_diIqMF/file.rc": 
  Type of index expression in array reference (float) not equivalent to int.
Compile: failure.
