Error, "/tmp/cs131_testrunner_hjIqMF/file.rc": 
  Incompatible type float to binary operator %, equivalent to int expected.
Error, "/tmp/cs131_testrunner_hjIqMF/file.rc": 
  Initialization value of type bool not assignable to constant/variable of type int.
Compile: failure.
