Error, "/tmp/cs131_testrunner_zkIqMF/file.rc": 
  bool required for conditional test, int found.
Error, "/tmp/cs131_testrunner_zkIqMF/file.rc": 
  Return required in function, none found.
Compile: failure.
