Error, "/tmp/cs131_testrunner_TkIqMF/file.rc": 
  Incompatible type bool to binary operator +, numeric expected.
Error, "/tmp/cs131_testrunner_TkIqMF/file.rc": 
  Incompatible type _MYS_1 to operator ->, pointer to struct expected.
Error, "/tmp/cs131_testrunner_TkIqMF/file.rc": 
  Incompatible type _MYS_2 to operator ->, pointer to struct expected.
Error, "/tmp/cs131_testrunner_TkIqMF/file.rc": 
  Return required in function, none found.
Compile: failure.
