Error, "/tmp/cs131_testrunner_PlIqMF/file.rc": 
  Initialization value of type int****** not assignable to constant/variable of type float*.
Error, "/tmp/cs131_testrunner_PlIqMF/file.rc": 
  Initialization value of type int****** not assignable to constant/variable of type int*.
Compile: failure.
