Error, "/tmp/cs131_testrunner_YlIqMF/file.rc": 
  Index value of 2 is outside legal range [0,2).
Error, "/tmp/cs131_testrunner_YlIqMF/file.rc": 
  Value of type int not assignable to variable of type bool.
Compile: failure.
