Error, "/tmp/cs131_testrunner_lmIqMF/file.rc": 
  Operand to "new" is not a modifiable L-value.
Error, "/tmp/cs131_testrunner_lmIqMF/file.rc": 
  Operand to "new" is not a modifiable L-value.
Error, "/tmp/cs131_testrunner_lmIqMF/file.rc": 
  Operand to "delete" is not a modifiable L-value.
Error, "/tmp/cs131_testrunner_lmIqMF/file.rc": 
  Type of delete's operand must be of pointer type, int found.
Compile: failure.
