Error, "/tmp/cs131_testrunner_CmIqMF/file.rc": 
  Argument of type int[10] not equivalent to reference parameter x, of type int**.
Error, "/tmp/cs131_testrunner_CmIqMF/file.rc": 
  Argument of type int[10] not assignable to value parameter x, of type int**.
Compile: failure.
