Error, "/tmp/cs131_testrunner_OmIqMF/file.rc": 
  Invalid operand to sizeof. Not a type or not addressable.
Error, "/tmp/cs131_testrunner_OmIqMF/file.rc": 
  Invalid operand to sizeof. Not a type or not addressable.
Error, "/tmp/cs131_testrunner_OmIqMF/file.rc": 
  Invalid operand to sizeof. Not a type or not addressable.
Compile: failure.
