Error, "/tmp/cs131_testrunner_XmIqMF/file.rc": 
  Index value of 4 is outside legal range [0,4).
Error, "/tmp/cs131_testrunner_XmIqMF/file.rc": 
  Index value of 3999 is outside legal range [0,20).
Compile: failure.
