Error, "/tmp/cs131_testrunner_ib3qMF/file.rc": 
  Duplicate declaration of overloaded function foo.
Error, "/tmp/cs131_testrunner_ib3qMF/file.rc": 
  Duplicate declaration of overloaded function foo.
Error, "/tmp/cs131_testrunner_ib3qMF/file.rc": 
  Illegal call to overloaded function foo.
Compile: failure.
